…
The interpretive payoff of the elastic net – which institutional
features actually carry weight after penalization. Nonzero coefficients
only, sorted by magnitude.

    en_coefs <- final_fit %>%
      extract_fit_parsnip() %>%
      tidy() %>%
      filter(term != "(Intercept)", estimate != 0) %>%
      mutate(abs_est = abs(estimate)) %>%
      arrange(desc(abs_est)) %>%
      select(term, estimate, penalty)

    en_coefs %>% print(n = 25)

    ## # A tibble: 74 × 3
    ##    term                      estimate penalty
    ##    <chr>                        <dbl>   <dbl>
    ##  1 PREDDEG_Bachelor.s        -0.0158  0.00113
    ##  2 C150                      -0.0143  0.00113
    ##  3 PREDDEG_Graduate          -0.0121  0.00113
    ##  4 PCTPELL                    0.0104  0.00113
    ##  5 LOCALE_unknown            -0.0102  0.00113
    ##  6 GRAD_DEBT_MDN             -0.00857 0.00113
    ##  7 HBCU                       0.00749 0.00113
    ##  8 CONTROL_Private.nonprofit -0.00733 0.00113
    ##  9 TUITFTE_log               -0.00684 0.00113
    ## 10 PCIP43                     0.00526 0.00113
    ## 11 CONTROL_Public            -0.00518 0.00113
    ## 12 PCTFLOAN                   0.00494 0.00113
    ## 13 INEXPFTE_log              -0.00485 0.00113
    ## 14 AVGFACSAL_log             -0.00484 0.00113
    ## 15 PCIP24                     0.00447 0.00113
    ## 16 PCIP50                     0.00443 0.00113
    ## 17 LOCALE_Town..Remote        0.00370 0.00113
    ## 18 REGION_Mid.East           -0.00320 0.00113
    ## 19 UGDS_BLACK                 0.00316 0.00113
    ## 20 REGION_Plains             -0.00315 0.00113
    ## 21 UGDS_log                   0.00313 0.00113
    ## 22 PCIP48                     0.00289 0.00113
    ## 23 PREDDEG_Certificate        0.00288 0.00113
    ## 24 UGDS_ASIAN                -0.00281 0.00113
    ## 25 LOCALE_Rural..Remote       0.00279 0.00113
    ## # ℹ 49 more rows
…
